22 Modello gerarchico beta-binomiale – Metodi bayesiani in psicologia
…
Una volta confermata la struttura, calcoliamo per ciascun operatore i successi totali e il numero di prove, ottenendo i sufficient statistics per la verosimiglianza binomiale. Da qui si ricava anche la proporzione empirica di risposte corrette, utile come benchmark descrittivo ma non ancora regolarizzata dal modello gerarchico.

by_subject <- tt_dat %>%
  group_by(s) %>%
  summarise(
    y = sum(y),
    n_trials = n(),
    prop_emp = y / n_trials,
    .groups = "drop"
  ) %>%
  arrange(s)

by_subject
#> # A tibble: 28 × 4
#>    s         y n_trials prop_emp
#>    <chr> <int>    <int>    <dbl>
#>  1 S01       1       10      0.1
#>  2 S02       2       10      0.2
#>  3 S03       3       10      0.3
#>  4 S04       3       10      0.3
#>  5 S05       3       10      0.3
#>  6 S06       3       10      0.3
#>  7 S07       3       10      0.3
#>  8 S08       3       10      0.3
#>  9 S09       3       10      0.3
#> 10 S10       3       10      0.3
#> # ℹ 18 more rows
…
Al termine dell’esecuzione, l’oggetto fit contiene i draw posteriori, le metriche di adattamento e il riepilogo delle diagnostiche essenziali. È buona pratica iniziare con un controllo sintetico usando fit$summary() per esaminare R̂ e dimensione campionaria efficace; qualsiasi valore di R̂ distante da 1 indica problemi di mescolamento tra catene, mentre valori molto bassi di ESS suggeriscono autocorrelazione elevata e quindi una minore informazione campionaria di quanto il numero di iterazioni lasci intendere.

sum_tbl <- fit$summary()
sum_tbl %>% 
  dplyr::filter(variable %in% c("alpha", "beta", "overall_p") | grepl("^p\\[", variable)) %>%
  print(n = 10)
#> # A tibble: 31 × 10
#>    variable  mean median    sd   mad    q5   q95  rhat  ess_bulk ess_tail
#>    <chr>    <dbl>  <dbl> <dbl> <dbl> <dbl> <dbl> <dbl>     <dbl>    <dbl>
#>  1 alpha    4.591  4.536 0.865 0.862 3.292 6.120 1.000  8127.678 6256.311
#>  2 beta     5.753  5.691 0.927 0.928 4.328 7.395 1.001 10179.787 6262.166
#>  3 p[1]     0.273  0.266 0.098 0.101 0.123 0.445 1.002 13832.020 5804.423
#>  4 p[2]     0.325  0.319 0.105 0.107 0.163 0.509 1.000 18248.354 5668.579
#>  5 p[3]     0.373  0.369 0.106 0.108 0.206 0.555 1.001 15178.133 5929.551
#>  6 p[4]     0.371  0.367 0.106 0.108 0.205 0.553 1.002 16205.868 5427.424
#>  7 p[5]     0.373  0.368 0.106 0.109 0.206 0.559 1.000 14469.777 6254.164
#>  8 p[6]     0.375  0.370 0.107 0.109 0.205 0.558 1.000 16662.048 5477.770
#>  9 p[7]     0.372  0.367 0.107 0.112 0.204 0.553 1.000 15713.602 6484.229
#> 10 p[8]     0.372  0.370 0.107 0.108 0.202 0.553 1.003 15450.860 4967.339
#> # ℹ 21 more rows
…
