46 Estensioni – Metodi bayesiani in psicologia
…
Estrazione dei campioni in formato “draws_matrix” (per summary tabellari):

standraws <- fit1$draws(format = "draws_matrix")

Statistiche descrittive compatte per \(\alpha_i\), \(\beta_i\) e \(\sigma\): media, mediana e intervalli credibili al 95% (2.5% - 97.5%):

standraws |> 
  subset_draws(variable = c("alpha", "beta", "sigma")) |> 
  summarise_draws(
    mean,
    ~ quantile(.x, probs = c(0.025, 0.5, 0.975))
  ) |> 
  print()
#> # A tibble: 121 × 5
#>    variable   mean `2.5%` `50%` `97.5%`
#>    <chr>     <dbl>  <dbl> <dbl>   <dbl>
#>  1 alpha[1]  0.662  0.161 0.683   1.022
#>  2 alpha[2]  0.181 -0.265 0.178   0.595
#>  3 alpha[3]  0.167 -0.251 0.186   0.507
#>  4 alpha[4]  0.300 -0.515 0.303   0.950
#>  5 alpha[5]  0.400  0.056 0.399   0.744
#>  6 alpha[6]  0.586 -0.001 0.613   1.043
#>  7 alpha[7]  0.408  0.121 0.406   0.750
#>  8 alpha[8]  0.119 -0.077 0.109   0.343
#>  9 alpha[9]  0.487  0.009 0.487   0.927
#> 10 alpha[10] 0.811  0.440 0.811   1.109
#> # ℹ 111 more rows

Diagnostica rapida (Rhat ed ESS):

# Se qualche Rhat > 1.01 o ESS basso, considerare run più lunghi o reparametrizzazioni
fit1$summary(variables = c("alpha", "beta", "sigma")) |>
  dplyr::select(variable, rhat, ess_bulk, ess_tail) |>
  dplyr::arrange(dplyr::desc(rhat)) |>
  print(n = 10)
#> # A tibble: 121 × 4
#>    variable   rhat ess_bulk ess_tail
#>    <chr>     <dbl>    <dbl>    <dbl>
#>  1 alpha[34] 1.177   14.956   10.927
#>  2 beta[47]  1.168   15.789   17.071
#>  3 beta[34]  1.168   15.618   11.197
#>  4 alpha[47] 1.163   16.778   17.192
#>  5 beta[46]  1.157   17.028   18.453
#>  6 beta[56]  1.141   19.034   26.829
#>  7 alpha[56] 1.141   19.378   43.006
#>  8 beta[40]  1.124   21.218   71.730
#>  9 beta[32]  1.122   20.397   22.425
#> 10 beta[26]  1.120   20.658   27.604
#> # ℹ 111 more rows
…
46.1.4 Analisi dei risultati

Eseguiamo l’analisi dei risultati seguendo lo schema usato sopra.

# Estrazione dei campioni posteriori come matrice 
standraws <- fit2$draws(format = "draws_matrix")

# Statistiche descrittive aggregate
standraws |> 
  subset_draws(variable = c("alpha", "beta", "sigma", "alpha_mean", "beta_mean", "alpha_sd", "beta_sd")) |> 
  summarise_draws(
    mean,
    ~ quantile(.x, probs = c(0.025, 0.5, 0.975))
  )
#> # A tibble: 125 × 5
#>    variable   mean `2.5%` `50%` `97.5%`
#>    <chr>     <dbl>  <dbl> <dbl>   <dbl>
#>  1 alpha[1]  0.576  0.292 0.587   0.795
#>  2 alpha[2]  0.385  0.059 0.393   0.664
#>  3 alpha[3]  0.320  0.019 0.328   0.582
#>  4 alpha[4]  0.490  0.145 0.505   0.749
#>  5 alpha[5]  0.367  0.096 0.371   0.621
#>  6 alpha[6]  0.552  0.257 0.563   0.775
#>  7 alpha[7]  0.467  0.215 0.471   0.704
#>  8 alpha[8]  0.221  0.015 0.216   0.459
#>  9 alpha[9]  0.510  0.209 0.520   0.754
#> 10 alpha[10] 0.637  0.425 0.644   0.812
#> # ℹ 115 more rows
…
